#
# Wavefront material file
# Converted by Meshlab Group
#

newmtl material_0
Ka 0.200000 0.200000 0.200000
Kd 0.000000 0.000000 0.000000
Ks 1.000000 1.000000 1.000000
Tr 1.000000
illum 2
Ns 0.000000

newmtl material_1
Ka 0.200000 0.200000 0.200000
Kd 0.078431 0.078431 0.078431
Ks 1.000000 1.000000 1.000000
Tr 1.000000
illum 2
Ns 0.000000

newmtl material_2
Ka 0.200000 0.200000 0.200000
Kd 0.584314 0.584314 0.584314
Ks 1.000000 1.000000 1.000000
Tr 1.000000
illum 2
Ns 0.000000
map_Kd 3.JPG

newmtl material_3
Ka 0.200000 0.200000 0.200000
Kd 0.584314 0.584314 0.584314
Ks 1.000000 1.000000 1.000000
Tr 1.000000
illum 2
Ns 0.000000
map_Kd 7.JPG

newmtl material_4
Ka 0.200000 0.200000 0.200000
Kd 0.584314 0.584314 0.584314
Ks 1.000000 1.000000 1.000000
Tr 1.000000
illum 2
Ns 0.000000
map_Kd 2.JPG

newmtl material_5
Ka 0.200000 0.200000 0.200000
Kd 0.584314 0.584314 0.584314
Ks 1.000000 1.000000 1.000000
Tr 1.000000
illum 2
Ns 0.000000
map_Kd 5.JPG

newmtl material_6
Ka 0.200000 0.200000 0.200000
Kd 0.584314 0.584314 0.584314
Ks 1.000000 1.000000 1.000000
Tr 1.000000
illum 2
Ns 0.000000
map_Kd 4.JPG

newmtl material_7
Ka 0.200000 0.200000 0.200000
Kd 0.584314 0.584314 0.584314
Ks 1.000000 1.000000 1.000000
Tr 1.000000
illum 2
Ns 0.000000
map_Kd 6.JPG

newmtl material_8
Ka 0.200000 0.200000 0.200000
Kd 0.584314 0.584314 0.584314
Ks 1.000000 1.000000 1.000000
Tr 1.000000
illum 2
Ns 0.000000
map_Kd 1.JPG

newmtl material_9
Ka 0.200000 0.200000 0.200000
Kd 0.909804 0.800000 0.643137
Ks 1.000000 1.000000 1.000000
Tr 1.000000
illum 2
Ns 0.000000

newmtl material_10
Ka 0.200000 0.200000 0.200000
Kd 0.039216 0.039216 0.039216
Ks 1.000000 1.000000 1.000000
Tr 1.000000
illum 2
Ns 0.000000

newmtl material_11
Ka 0.200000 0.200000 0.200000
Kd 0.584314 0.584314 0.584314
Ks 1.000000 1.000000 1.000000
Tr 1.000000
illum 2
Ns 0.000000
map_Kd 25164910.JPG

