C:\Users\zhangxiguang\Desktop\t$m$p$$$\客房2.max
C:\Users\zhangxiguang\Desktop\t$m$p$$$\MAXFILES.TXT
E:\2012\10月\刘建军2\客房\花瓣.jpg
E:\2012\10月\刘建军2\客房\tt.jpg
E:\2012\10月\刘建军2\客房\s378a1.jpg
E:\2012\10月\刘建军2\客房\s378a2.jpg
E:\2012\10月\刘建军2\客房\Arch30_towelbump5.jpg
E:\2012\10月\刘建军2\客房\发誓(3).jpg
E:\2012\10月\刘建军2\客房\arch25_fabric_Gbump.jpg
F:\欧模网\2011年6月6日更新\03\s47av1.jpg
E:\2012\10月\刘建军2\jgfjf.jpg
E:\2012\10月\刘建军2\模型\as.jpg
E:\2012\10月\刘建军2\客房\314412--036-embed.jpg
E:\2012\10月\刘建军2\客房\314223--027-embed.jpg
E:\2012\10月\刘建军2\客房\Archmodels66_flower_12.jpg
E:\2012\10月\刘建军2\客房\Archmodels66_flower_5_bump.jpg
E:\2012\10月\刘建军2\客房\Archmodels66_stalk_5.jpg
E:\2012\10月\刘建军2\客房\Archmodels66_leaf_16.jpg
E:\2012\10月\刘建军2\客房\Archmodels66_leaf_15.jpg
E:\2012\10月\刘建军2\客房\Archmodels66_leaf_16_bump.jpg
E:\2012\10月\刘建军2\客房\1122006867copy1.jpg
E:\2012\10月\刘建军2\客房\1122006867copy2.jpg
E:\2012\10月\刘建军2\客房\at.jpg
E:\2012\10月\刘建军2\客房\Archmodels66_leaf_23a.jpg
E:\2012\10月\刘建军2\客房\books2.jpg
F:\灯光\冷风 斑点.ies
E:\2012\10月\刘建军2\客房\0906020933d85afabc1551b948.jpg
F:\欧模网\酒店模型\159\153\arch24_leaf-01-dark.jpg
E:\2012\10月\刘建军2\客房\s1b1.jpg
E:\2012\10月\刘建军2\客房\s1b2.jpg
E:\2012\10月\刘建军2\客房\ArchInteriors_12_06_leather_bump.jpg
E:\2012\10月\刘建军2\客房\60625767.jpg
E:\2012\10月\刘建军2\客房\Archmodels66_flower_12_bump.jpg
E:\2012\10月\刘建军2\客房\arch24_pear_2A.jpg
E:\张新光\四月\张晶晶\张晶晶\绒毛地毯2.jpg
E:\2012\10月\刘建军2\客房\20100227-17.jpg
