# File produced by Open Asset Import Library (http://www.assimp.sf.net)
# (assimp v3.1.187496374)

newmtl JoinedMaterial_#38
Kd 0 0 0
Ka 0 0 0
Ks 0 0 0
Ke 0 0 0
d 1
illum 1

newmtl tv-xiangxiang
Kd 0.145098 0.145098 0.145098
Ka 0.145098 0.145098 0.145098
Ks 0.898039 0.898039 0.898039
Ke 0 0 0
d 1
illum 1

newmtl tv-jingshu
Kd 0.584314 0.584314 0.584314
Ka 0.584314 0.584314 0.584314
Ks 0.898039 0.898039 0.898039
Ke 0 0 0
d 1
illum 1

newmtl %%%DEFAULT
Kd 0.3 0.3 0.3
Ka 0 0 0
Ks 0 0 0
Ke 0 0 0
d 1
illum 1

