# Blender MTL File: 'None'
# Material Count: 15

newmtl PlaneMarkerX
Ns 90.196078
Ka 0.000000 0.000000 0.000000
Kd 0.409600 0.409600 0.409600
Ks 0.500000 0.500000 0.500000
Ni 1.000000
d 1.000000
illum 2

newmtl PlaneMarkerY
Ns 90.196078
Ka 0.000000 0.000000 0.000000
Kd 0.409600 0.409600 0.409600
Ks 0.500000 0.500000 0.500000
Ni 1.000000
d 1.000000
illum 2

newmtl PlaneX
Ns 90.196078
Ka 0.000000 0.000000 0.000000
Kd 0.409600 0.409600 0.409600
Ks 0.500000 0.500000 0.500000
Ni 1.000000
d 1.000000
illum 2

newmtl PlaneY
Ns 90.196078
Ka 0.000000 0.000000 0.000000
Kd 0.409600 0.409600 0.409600
Ks 0.500000 0.500000 0.500000
Ni 1.000000
d 1.000000
illum 2

newmtl Untitled
Ns 70.588235
Ka 0.000000 0.000000 0.000000
Kd 0.107374 0.107374 0.107374
Ks 0.500000 0.500000 0.500000
Ni 1.000000
d 1.000000
illum 2

newmtl bottom_painting_outer2_mat
Ns 70.588235
Ka 0.000000 0.000000 0.000000
Kd 0.107374 0.107374 0.107374
Ks 0.500000 0.500000 0.500000
Ni 1.000000
d 1.000000
illum 2

newmtl ceiling_enclose_mat
Ns 70.588235
Ka 0.000000 0.000000 0.000000
Kd 0.107374 0.107374 0.107374
Ks 0.500000 0.500000 0.500000
Ni 1.000000
d 1.000000
illum 2

newmtl chair_fmx_3_mat
Ns 70.588235
Ka 0.000000 0.000000 0.000000
Kd 0.107374 0.107374 0.107374
Ks 0.500000 0.500000 0.500000
Ni 1.000000
d 1.000000
illum 2

newmtl chair_grouped_mat
Ns 96.078431
Ka 0.000000 0.000000 0.000000
Kd 0.640000 0.640000 0.640000
Ks 0.500000 0.500000 0.500000
Ni 1.000000
d 1.000000
illum 2

newmtl floor_enclose_1_mat
Ns 70.588235
Ka 0.000000 0.000000 0.000000
Kd 0.107374 0.107374 0.107374
Ks 0.500000 0.500000 0.500000
Ni 1.000000
d 1.000000
illum 2

newmtl paintmat
Ns 70.588235
Ka 0.000000 0.000000 0.000000
Kd 0.063162 0.063162 0.063162
Ks 0.449019 0.449019 0.449019
Ni 1.000000
d 1.000000
illum 2
map_Kd /home/ankur/workspace/code/synthcamv2/living_rooms/89/1006821-.JPG

newmtl room_skeleton_mat
Ns 70.588235
Ka 0.000000 0.000000 0.000000
Kd 0.107374 0.107374 0.107374
Ks 0.500000 0.500000 0.500000
Ni 1.000000
d 1.000000
illum 2

newmtl top_painting_inner_mat
Ns 70.588235
Ka 0.000000 0.000000 0.000000
Kd 0.063162 0.063162 0.063162
Ks 0.449019 0.449019 0.449019
Ni 1.000000
d 1.000000
illum 2
map_Kd /home/ankur/workspace/code/synthcamv2/living_rooms/89/1006823-.JPG

newmtl top_painting_outer2_mat
Ns 70.588235
Ka 0.000000 0.000000 0.000000
Kd 0.107374 0.107374 0.107374
Ks 0.500000 0.500000 0.500000
Ni 1.000000
d 1.000000
illum 2

newmtl top_painting_outer_mat
Ns 70.588235
Ka 0.000000 0.000000 0.000000
Kd 0.107374 0.107374 0.107374
Ks 0.500000 0.500000 0.500000
Ni 1.000000
d 1.000000
illum 2
