# Blender MTL File: 'None'
# Material Count: 21

newmtl Table1_mat
Ns 86.274510
Ka 0.000000 0.000000 0.000000
Kd 0.409600 0.409600 0.409600
Ks 0.500000 0.500000 0.500000
Ni 1.000000
d 1.000000
illum 2

newmtl Table2_mat
Ns 86.274510
Ka 0.000000 0.000000 0.000000
Kd 0.409600 0.409600 0.409600
Ks 0.500000 0.500000 0.500000
Ni 1.000000
d 1.000000
illum 2

newmtl Table3_mat
Ns 86.274510
Ka 0.000000 0.000000 0.000000
Kd 0.409600 0.409600 0.409600
Ks 0.500000 0.500000 0.500000
Ni 1.000000
d 1.000000
illum 2

newmtl Untitled
Ns 86.274510
Ka 0.000000 0.000000 0.000000
Kd 0.409600 0.409600 0.409600
Ks 0.500000 0.500000 0.500000
Ni 1.000000
d 1.000000
illum 2

newmtl bottom_painting_outer2_mat
Ns 86.274510
Ka 0.000000 0.000000 0.000000
Kd 0.409600 0.409600 0.409600
Ks 0.500000 0.500000 0.500000
Ni 1.000000
d 1.000000
illum 2

newmtl ceiling_enclose_mat
Ns 86.274510
Ka 0.000000 0.000000 0.000000
Kd 0.409600 0.409600 0.409600
Ks 0.500000 0.500000 0.500000
Ni 1.000000
d 1.000000
illum 2

newmtl chair_fmx_1_mat
Ns 86.274510
Ka 0.000000 0.000000 0.000000
Kd 0.409600 0.409600 0.409600
Ks 0.500000 0.500000 0.500000
Ni 1.000000
d 1.000000
illum 2

newmtl chair_fmx_3_mat
Ns 86.274510
Ka 0.000000 0.000000 0.000000
Kd 0.409600 0.409600 0.409600
Ks 0.500000 0.500000 0.500000
Ni 1.000000
d 1.000000
illum 2

newmtl chair_fmx_4_mat
Ns 86.274510
Ka 0.000000 0.000000 0.000000
Kd 0.409600 0.409600 0.409600
Ks 0.500000 0.500000 0.500000
Ni 1.000000
d 1.000000
illum 2

newmtl chair_fmx_mat
Ns 86.274510
Ka 0.000000 0.000000 0.000000
Kd 0.409600 0.409600 0.409600
Ks 0.500000 0.500000 0.500000
Ni 1.000000
d 1.000000
illum 2

newmtl chair_fx_4_mat
Ns 86.274510
Ka 0.000000 0.000000 0.000000
Kd 0.409600 0.409600 0.409600
Ks 0.500000 0.500000 0.500000
Ni 1.000000
d 1.000000
illum 2

newmtl chair_fx_5_mat
Ns 86.274510
Ka 0.000000 0.000000 0.000000
Kd 0.409600 0.409600 0.409600
Ks 0.500000 0.500000 0.500000
Ni 1.000000
d 1.000000
illum 2

newmtl chair_fx_6_mat
Ns 86.274510
Ka 0.000000 0.000000 0.000000
Kd 0.409600 0.409600 0.409600
Ks 0.500000 0.500000 0.500000
Ni 1.000000
d 1.000000
illum 2

newmtl chair_fx_mat
Ns 86.274510
Ka 0.000000 0.000000 0.000000
Kd 0.409600 0.409600 0.409600
Ks 0.500000 0.500000 0.500000
Ni 1.000000
d 1.000000
illum 2

newmtl chair_fx_mat.001
Ns 86.274510
Ka 0.000000 0.000000 0.000000
Kd 0.409600 0.409600 0.409600
Ks 0.500000 0.500000 0.500000
Ni 1.000000
d 1.000000
illum 2

newmtl floor_enclose_1_mat
Ns 86.274510
Ka 0.000000 0.000000 0.000000
Kd 0.409600 0.409600 0.409600
Ks 0.500000 0.500000 0.500000
Ni 1.000000
d 1.000000
illum 2

newmtl paintmat
Ns 86.274510
Ka 0.000000 0.000000 0.000000
Kd 0.240941 0.240941 0.240941
Ks 0.449019 0.449019 0.449019
Ni 1.000000
d 1.000000
illum 2
map_Kd /home/ankur/workspace/code/synthcamv2/living_rooms/89/1006821-.JPG

newmtl room_skeleton_mat
Ns 86.274510
Ka 0.000000 0.000000 0.000000
Kd 0.409600 0.409600 0.409600
Ks 0.500000 0.500000 0.500000
Ni 1.000000
d 1.000000
illum 2

newmtl top_painting_inner_mat
Ns 86.274510
Ka 0.000000 0.000000 0.000000
Kd 0.240941 0.240941 0.240941
Ks 0.449019 0.449019 0.449019
Ni 1.000000
d 1.000000
illum 2
map_Kd /home/ankur/workspace/code/synthcamv2/living_rooms/89/1006823-.JPG

newmtl top_painting_outer2_mat
Ns 86.274510
Ka 0.000000 0.000000 0.000000
Kd 0.409600 0.409600 0.409600
Ks 0.500000 0.500000 0.500000
Ni 1.000000
d 1.000000
illum 2

newmtl top_painting_outer_mat
Ns 86.274510
Ka 0.000000 0.000000 0.000000
Kd 0.409600 0.409600 0.409600
Ks 0.500000 0.500000 0.500000
Ni 1.000000
d 1.000000
illum 2
