#
# Wavefront material file
# Converted by Meshlab Group
#

newmtl material_0
Ka 0.200000 0.200000 0.200000
Kd 0.000000 0.000000 0.000000
Ks 1.000000 1.000000 1.000000
Tr 1.000000
illum 2
Ns 0.000000

newmtl material_1
Ka 0.200000 0.200000 0.200000
Kd 0.149020 0.392157 0.000000
Ks 1.000000 1.000000 1.000000
Tr 1.000000
illum 2
Ns 0.000000

newmtl material_2
Ka 0.200000 0.200000 0.200000
Kd 0.725490 0.949020 0.117647
Ks 1.000000 1.000000 1.000000
Tr 1.000000
illum 2
Ns 0.000000

newmtl material_3
Ka 0.200000 0.200000 0.200000
Kd 0.301961 0.603922 0.082353
Ks 1.000000 1.000000 1.000000
Tr 1.000000
illum 2
Ns 0.000000

newmtl material_4
Ka 0.200000 0.200000 0.200000
Kd 0.980392 0.980392 0.980392
Ks 1.000000 1.000000 1.000000
Tr 1.000000
illum 2
Ns 0.000000

newmtl material_5
Ka 0.200000 0.200000 0.200000
Kd 0.776471 0.658824 0.588235
Ks 1.000000 1.000000 1.000000
Tr 1.000000
illum 2
Ns 0.000000
map_Kd ???-3.JPG

newmtl material_6
Ka 0.200000 0.200000 0.200000
Kd 0.588235 0.588235 0.588235
Ks 1.000000 1.000000 1.000000
Tr 1.000000
illum 2
Ns 0.000000
map_Kd 093.JPG

newmtl material_7
Ka 0.200000 0.200000 0.200000
Kd 0.588235 0.588235 0.588235
Ks 1.000000 1.000000 1.000000
Tr 1.000000
illum 2
Ns 0.000000
map_Kd 49778507.JPG

newmtl material_8
Ka 0.200000 0.200000 0.200000
Kd 0.588235 0.588235 0.588235
Ks 1.000000 1.000000 1.000000
Tr 1.000000
illum 2
Ns 0.000000
map_Kd 85325082.JPG

newmtl material_9
Ka 0.200000 0.200000 0.200000
Kd 0.588235 0.588235 0.588235
Ks 1.000000 1.000000 1.000000
Tr 1.000000
illum 2
Ns 0.000000
map_Kd 20037161.JPE

newmtl material_10
Ka 0.200000 0.200000 0.200000
Kd 0.588235 0.588235 0.588235
Ks 1.000000 1.000000 1.000000
Tr 1.000000
illum 2
Ns 0.000000
map_Kd 2004-11-.JPG

newmtl material_11
Ka 0.200000 0.200000 0.200000
Kd 0.588235 0.588235 0.588235
Ks 1.000000 1.000000 1.000000
Tr 1.000000
illum 2
Ns 0.000000
map_Kd 11159063.JPG

